Scooter Equity and Demand Analysis
…
LV_rebal_sf_list_summary_2_map <- LV_rebal_sf_list_summary_2 %>% 
  gather(dist_zone, dist_pct, Dist_8_pct:Dist_1_9_pct) %>% 
  mutate(requirement = case_when(dist_zone == "Dist_8_pct" ~ 0.1,
                                 dist_zone == "Dist_1_9_pct" ~ 0.2,
                                 TRUE ~ NA_real_),
         dist_zone = factor(case_when(dist_zone == "Dist_8_pct" ~ "Dist_8_pct",
                                      dist_zone == "Dist_1_9_pct" ~ "Dist_1_9_pct",
                                      TRUE ~ NA_character_),
                            levels = c("Dist_8_pct", "Dist_1_9_pct"),
                            labels = c("Zone 8", "Zone 1 & 9")))

LV_rebal_sf_list_summary_2_map

## # A tibble: 228 x 16
## # Groups:   audit_date, operators [228]
##    audit_date          operators scooter_total Dist_Zone_1 Dist_Zone_2
##    <dttm>              <fct>             <int>       <int>       <int>
##  1 2018-11-15 07:00:00 Bird Lou~             0           0           0
##  2 2018-11-15 07:00:00 Lime Lou~            95           1          73
##  3 2018-11-22 07:00:00 Bird Lou~             0           0           0
##  4 2018-11-22 07:00:00 Lime Lou~            65           1          15
##  5 2018-11-29 07:00:00 Bird Lou~             0           0           0
##  6 2018-11-29 07:00:00 Lime Lou~           105           1          52
##  7 2018-12-06 07:00:00 Bird Lou~             0           0           0
##  8 2018-12-06 07:00:00 Lime Lou~           107           1          40
##  9 2018-12-13 07:00:00 Bird Lou~             0           0           0
## 10 2018-12-13 07:00:00 Lime Lou~            74           0          38
## # ... with 218 more rows, and 11 more variables: Dist_Zone_3 <int>,
## #   Dist_Zone_4 <int>, Dist_Zone_5 <int>, Dist_Zone_6 <int>, Dist_Zone_7 <int>,
## #   Dist_Zone_8 <int>, Dist_Zone_9 <int>, compliance <chr>, dist_zone <fct>,
## #   dist_pct <dbl>, requirement <dbl>
…
